%YAML 1.1
%TAG !u! tag:unity3d.com,2011:
--- !u!1001 &2668927817167359588
PrefabInstance:
  m_ObjectHideFlags: 0
  serializedVersion: 2
  m_Modification:
    m_TransformParent: {fileID: 0}
    m_Modifications:
    - target: {fileID: 6220870707998113219, guid: f851b7297c7161842a94e22d3cea6d02,
        type: 3}
      propertyPath: m_Name
      value: Enemy
      objectReference: {fileID: 0}
    - target: {fileID: 6220870707997968707, guid: f851b7297c7161842a94e22d3cea6d02,
        type: 3}
      propertyPath: m_LocalPosition.x
      value: -0.43
      objectReference: {fileID: 0}
    - target: {fileID: 6220870707997968707, guid: f851b7297c7161842a94e22d3cea6d02,
        type: 3}
      propertyPath: m_LocalPosition.y
      value: 17.7
      objectReference: {fileID: 0}
    - target: {fileID: 6220870707997968707, guid: f851b7297c7161842a94e22d3cea6d02,
        type: 3}
      propertyPath: m_LocalPosition.z
      value: 0
      objectReference: {fileID: 0}
    - target: {fileID: 6220870707997968707, guid: f851b7297c7161842a94e22d3cea6d02,
        type: 3}
      propertyPath: m_LocalRotation.x
      value: 0
      objectReference: {fileID: 0}
    - target: {fileID: 6220870707997968707, guid: f851b7297c7161842a94e22d3cea6d02,
        type: 3}
      propertyPath: m_LocalRotation.y
      value: 0
      objectReference: {fileID: 0}
    - target: {fileID: 6220870707997968707, guid: f851b7297c7161842a94e22d3cea6d02,
        type: 3}
      propertyPath: m_LocalRotation.z
      value: 0
      objectReference: {fileID: 0}
    - target: {fileID: 6220870707997968707, guid: f851b7297c7161842a94e22d3cea6d02,
        type: 3}
      propertyPath: m_LocalRotation.w
      value: 1
      objectReference: {fileID: 0}
    - target: {fileID: 6220870707997968707, guid: f851b7297c7161842a94e22d3cea6d02,
        type: 3}
      propertyPath: m_RootOrder
      value: 0
      objectReference: {fileID: 0}
    - target: {fileID: 6220870707997968707, guid: f851b7297c7161842a94e22d3cea6d02,
        type: 3}
      propertyPath: m_LocalEulerAnglesHint.x
      value: 0
      objectReference: {fileID: 0}
    - target: {fileID: 6220870707997968707, guid: f851b7297c7161842a94e22d3cea6d02,
        type: 3}
      propertyPath: m_LocalEulerAnglesHint.y
      value: 0
      objectReference: {fileID: 0}
    - target: {fileID: 6220870707997968707, guid: f851b7297c7161842a94e22d3cea6d02,
        type: 3}
      propertyPath: m_LocalEulerAnglesHint.z
      value: 0
      objectReference: {fileID: 0}
    m_RemovedComponents: []
  m_SourcePrefab: {fileID: 100100000, guid: f851b7297c7161842a94e22d3cea6d02, type: 3}
